…
```
## -- Conflicts ------------------------------------------------------------------------------------------------------------------------------------------- tidyverse_conflicts() --
## x dplyr::filter() masks stats::filter()
## x dplyr::lag()    masks stats::lag()
```

## nycflights13

```r
flights
```

```
## # A tibble: 336,776 x 19
##     year month   day dep_time sched_dep_time dep_delay arr_time
##    <int> <int> <int>    <int>          <int>     <dbl>    <int>
##  1  2013     1     1      517            515         2      830
##  2  2013     1     1      533            529         4      850
##  3  2013     1     1      542            540         2      923
##  4  2013     1     1      544            545        -1     1004
##  5  2013     1     1      554            600        -6      812
##  6  2013     1     1      554            558        -4      740
##  7  2013     1     1      555            600        -5      913
##  8  2013     1     1      557            600        -3      709
##  9  2013     1     1      557            600        -3      838
## 10  2013     1     1      558            600        -2      753
## # … with 336,766 more rows, and 12 more variables: sched_arr_time <int>,
## #   arr_delay <dbl>, carrier <chr>, flight <int>, tailnum <chr>,
## #   origin <chr>, dest <chr>, air_time <dbl>, distance <dbl>, hour <dbl>,
## #   minute <dbl>, time_hour <dttm>
```

## Filter
Flights between JFK and SFO airports.

```r
flights %>% 
  filter(origin=="JFK" & dest=="SFO")
```

```
## # A tibble: 8,204 x 19
##     year month   day dep_time sched_dep_time dep_delay arr_time
##    <int> <int> <int>    <int>          <int>     <dbl>    <int>
##  1  2013     1     1      611            600        11      945
##  2  2013     1     1      655            700        -5     1037
##  3  2013     1     1      729            730        -1     1049
##  4  2013     1     1      734            737        -3     1047
##  5  2013     1     1      745            745         0     1135
##  6  2013     1     1      803            800         3     1132
##  7  2013     1     1     1029           1030        -1     1427
##  8  2013     1     1     1031           1030         1     1353
##  9  2013     1     1     1112           1100        12     1440
## 10  2013     1     1     1124           1100        24     1435
## # … with 8,194 more rows, and 12 more variables: sched_arr_time <int>,
## #   arr_delay <dbl>, carrier <chr>, flight <int>, tailnum <chr>,
## #   origin <chr>, dest <chr>, air_time <dbl>, distance <dbl>, hour <dbl>,
## #   minute <dbl>, time_hour <dttm>
```
…
